{
  "timing": {
    "xs": "150ms",
    "s": "300ms",
    "m": "500ms",
    "l": "700ms",
    "xl": "1.5s"
  },
  "easing": {
    "ease": "cubic-bezier(0.19, 1, 0.22, 1)",
    "linear": "linear"
  }
}
