<?xml version="1.0" encoding="UTF-8" standalone="no"?>
<svg width="32px" height="32px" viewBox="0 0 32 32" version="1.1" xmlns="http://www.w3.org/2000/svg" xmlns:xlink="http://www.w3.org/1999/xlink">
    <!-- Generator: Sketch 42 (36781) - http://www.bohemiancoding.com/sketch -->
    <title>bookmarked-outlined</title>
    <desc>Created with Sketch.</desc>
    <defs></defs>
    <g id="Icons" stroke="none" stroke-width="1" fill="none" fill-rule="evenodd">
        <g id="bookmarked-outlined" fill="#000000">
            <path d="M22.4149941,4.53922772e-15 L9.58289319,4.53922772e-15 C7.06230194,4.53922772e-15 5,1.9998889 5,4.44419754 L5,30.2205433 L5.00733263,30.1814344 C4.99633369,30.6525193 5.16865047,31.1236042 5.53894824,31.4826954 C5.89641391,31.8257875 6.36386901,31.9982223 6.83132412,31.9982223 C7.30061238,31.9982223 7.7717338,31.8240098 8.13103263,31.4755847 L15.9989437,23.1098272 L23.8741873,31.4844731 C24.2334862,31.8275651 24.6991081,32 25.16473,32 C25.6376846,32 26.108806,31.8222321 26.4662717,31.4720293 C26.8439021,31.1004944 27.0217184,30.6134104 26.9978873,30.1316594 L26.9978873,4.44419754 C26.9978873,1.9998889 24.9355854,-1.77635684e-15 22.4149941,-1.77635684e-15 L22.4149941,4.53922772e-15 Z M8.66631455,24.3559802 L8.66631455,4.44419754 C8.66631455,3.96244653 9.08610757,3.55535804 9.58289319,3.55535804 L22.4149941,3.55535804 C22.9117798,3.55535804 23.3315728,3.96244653 23.3315728,4.44419754 L23.3297396,25.6305761 L15.9989437,17.8336759 L13.2895372,20.7135159 L8.66631455,25.6092439 L8.66631455,24.3559802 L8.66631455,24.3559802 Z" id="Icon/Title-Bar/Normal/Bookmarked-Outlined"></path>
        </g>
    </g>
</svg>