<?xml version="1.0" encoding="UTF-8" standalone="no"?>
<svg width="32px" height="32px" viewBox="0 0 32 32" preserveAspectRation="xMidYMid" version="1.1" xmlns="http://www.w3.org/2000/svg" xmlns:xlink="http://www.w3.org/1999/xlink">
  <defs>
    <linearGradient id="gradient-start" x1="50%" y1="0%" x2="50%" y2="100%">
      <stop offset="15%" stop-color="currentColor" />
      <stop offset="90%" stop-color="currentColor" stop-opacity="0.6" />
    </linearGradient>
    <linearGradient id="gradient-end" x1="50%" y1="100%" x2="50%" y2="0%">
      <stop offset="10%" stop-color="currentColor" stop-opacity="0.6" />
      <stop offset="80%" stop-color="currentColor" stop-opacity="0"/>
    </linearGradient>
  </defs>
  <g>
    <path fill="url(#gradient-start)" d="M16,31.2v-2.9c6.8,0,12.3-5.5,12.3-12.3c0-4.3-2.3-8.3-6-10.5l1.5-2.4c4.6,2.7,7.4,7.7,7.4,13
    C31.1,24.4,24.3,31.2,16,31.2z"/>
    <path fill="url(#gradient-end)" d="M16,31.2c-8.3,0-15.1-6.8-15.1-15.1C0.9,10.7,3.7,5.7,8.4,3l1.4,2.5c-3.8,2.2-6.1,6.3-6.1,10.6
    c0,6.8,5.5,12.3,12.3,12.3V31.2z"/>
  </g>
</svg>
