<?xml version="1.0" encoding="UTF-8" standalone="no"?>
<svg width="32px" height="32px" viewBox="0 0 32 32" version="1.1" xmlns="http://www.w3.org/2000/svg" xmlns:xlink="http://www.w3.org/1999/xlink">
    <!-- Generator: Sketch 42 (36781) - http://www.bohemiancoding.com/sketch -->
    <title>close</title>
    <desc>Created with Sketch.</desc>
    <defs></defs>
    <g id="Icons" stroke="none" stroke-width="1" fill="none" fill-rule="evenodd">
        <g id="close" fill="#000000">
            <polygon id="Icon/Title-Bar/Normal/Close" points="19.1111111 15.7746479 31.5555556 3.15492958 28.4444444 0 16 12.6197183 3.55555556 0 0.444444444 3.15492958 12.8888889 15.7746479 -8.93208154e-15 28.8450704 3.11111111 32 16 18.9295775 28.8888889 32 32 28.8450704"></polygon>
        </g>
    </g>
</svg>