<?xml version="1.0" encoding="UTF-8" standalone="no"?>
<svg width="32px" height="32px" viewBox="0 0 32 32" version="1.1" xmlns="http://www.w3.org/2000/svg" xmlns:xlink="http://www.w3.org/1999/xlink">
    <!-- Generator: Sketch 42 (36781) - http://www.bohemiancoding.com/sketch -->
    <title>collapse</title>
    <desc>Created with Sketch.</desc>
    <defs></defs>
    <g id="Icons" stroke="none" stroke-width="1" fill="none" fill-rule="evenodd">
        <g id="collapse" fill="#000000">
            <path d="M22.5304147,12.449013 L32,22.0559559 L32,0 L10.2593944,0 L19.3507815,9.22325883 L-0.200038234,28.7740786 L3.00265544,31.9767723 L22.5304147,12.449013 Z" id="Icon/Title-Bar/Normal/Collapse" transform="translate(16.000000, 16.000000) scale(-1, -1) translate(-16.000000, -16.000000) "></path>
        </g>
    </g>
</svg>