<?xml version="1.0" encoding="UTF-8" standalone="no"?>
<svg width="32px" height="32px" viewBox="0 0 32 32" version="1.1" xmlns="http://www.w3.org/2000/svg" xmlns:xlink="http://www.w3.org/1999/xlink">
    <!-- Generator: Sketch 42 (36781) - http://www.bohemiancoding.com/sketch -->
    <title>controls</title>
    <desc>Created with Sketch.</desc>
    <defs></defs>
    <g id="Icons" stroke="none" stroke-width="1" fill="none" fill-rule="evenodd">
        <g id="controls" fill="#000000">
            <g id="Icon/Title-Bar/Normal/Controls" transform="translate(3.000000, 0.000000)">
                <path d="M26,10.4232727 C26,8.52945455 24.7881111,6.93090909 23.1111111,6.32727273 L23.1111111,1.45454545 C23.1111111,0.651636364 22.4654444,-1.77635684e-15 21.6666667,-1.77635684e-15 C20.8678889,-1.77635684e-15 20.2222222,0.651636364 20.2222222,1.45454545 L20.2222222,6.32727273 C18.5452222,6.93090909 17.3333333,8.52945455 17.3333333,10.4232727 C17.3333333,12.3185455 18.5466667,13.92 20.228,14.5207273 C20.2265556,14.5294545 20.2222222,14.5367273 20.2222222,14.5454545 L20.2222222,30.5454545 C20.2222222,31.3498182 20.8678889,32 21.6666667,32 C22.4654444,32 23.1111111,31.3498182 23.1111111,30.5454545 L23.1111111,14.5454545 C23.1111111,14.5367273 23.1067778,14.5294545 23.1053333,14.5207273 C24.7866667,13.92 26,12.3185455 26,10.4232727 L26,10.4232727 Z M21.6666667,11.8778182 C20.8693333,11.8778182 20.2222222,11.2247273 20.2222222,10.4232727 C20.2222222,9.62181818 20.8693333,8.96872727 21.6666667,8.96872727 C22.464,8.96872727 23.1111111,9.62181818 23.1111111,10.4232727 C23.1111111,11.2247273 22.464,11.8778182 21.6666667,11.8778182 L21.6666667,11.8778182 Z" id="Shape"></path>
                <path d="M14.4444444,15.0545455 L14.4444444,1.45454545 C14.4444444,0.651636364 13.7973333,-1.77635684e-15 13,-1.77635684e-15 C12.2026667,-1.77635684e-15 11.5555556,0.651636364 11.5555556,1.45454545 L11.5555556,15.0545455 C9.87711111,15.6581818 8.66666667,17.2567273 8.66666667,19.1505455 C8.66666667,21.0458182 9.88,22.6443636 11.5598889,23.2465455 C11.5598889,23.2567273 11.5555556,23.264 11.5555556,23.2727273 L11.5555556,30.5454545 C11.5555556,31.3498182 12.2026667,32 13,32 C13.7973333,32 14.4444444,31.3498182 14.4444444,30.5454545 L14.4444444,23.2727273 C14.4444444,23.264 14.4401111,23.2567273 14.4401111,23.2465455 C16.12,22.6443636 17.3333333,21.0458182 17.3333333,19.1505455 C17.3333333,17.2567273 16.1214444,15.6581818 14.4444444,15.0545455 L14.4444444,15.0545455 Z M13,20.6050909 C12.2041111,20.6050909 11.5555556,19.9534545 11.5555556,19.1505455 C11.5555556,18.3476364 12.2041111,17.696 13,17.696 C13.7958889,17.696 14.4444444,18.3476364 14.4444444,19.1505455 C14.4444444,19.9534545 13.7958889,20.6050909 13,20.6050909 L13,20.6050909 Z" id="Shape"></path>
                <path d="M8.66666667,13.3323636 C8.66666667,11.4385455 7.45622222,9.84 5.77777778,9.23636364 L5.77777778,1.45454545 C5.77777778,0.651636364 5.13066667,-1.77635684e-15 4.33333333,-1.77635684e-15 C3.536,-1.77635684e-15 2.88888889,0.651636364 2.88888889,1.45454545 L2.88888889,9.23636364 C1.21044444,9.84 0,11.4385455 0,13.3323636 C0,15.2276364 1.21333333,16.8290909 2.89322222,17.4283636 C2.89322222,17.4385455 2.88888889,17.4458182 2.88888889,17.4545455 L2.88888889,30.5454545 C2.88888889,31.3498182 3.536,32 4.33333333,32 C5.13066667,32 5.77777778,31.3498182 5.77777778,30.5454545 L5.77777778,17.4545455 C5.77777778,17.4458182 5.77344444,17.4385455 5.77344444,17.4283636 C7.45333333,16.8290909 8.66666667,15.2276364 8.66666667,13.3323636 L8.66666667,13.3323636 Z M4.33333333,14.7869091 C3.53744444,14.7869091 2.88888889,14.1338182 2.88888889,13.3323636 C2.88888889,12.5309091 3.53744444,11.8778182 4.33333333,11.8778182 C5.12922222,11.8778182 5.77777778,12.5309091 5.77777778,13.3323636 C5.77777778,14.1338182 5.12922222,14.7869091 4.33333333,14.7869091 L4.33333333,14.7869091 Z" id="Shape"></path>
            </g>
        </g>
    </g>
</svg>