<?xml version="1.0" encoding="UTF-8" standalone="no"?>
<svg width="32px" height="32px" viewBox="0 0 32 32" version="1.1" xmlns="http://www.w3.org/2000/svg" xmlns:xlink="http://www.w3.org/1999/xlink">
    <!-- Generator: Sketch 42 (36781) - http://www.bohemiancoding.com/sketch -->
    <title>down-cursor</title>
    <desc>Created with Sketch.</desc>
    <defs></defs>
    <g id="Icons" stroke="none" stroke-width="1" fill="none" fill-rule="evenodd">
        <g id="down-cursor" fill="#000000">
            <polygon id="Icon/Title-Bar/Normal/Down-Cursor" transform="translate(16.000000, 16.000000) rotate(90.000000) translate(-16.000000, -16.000000) " points="6.5 -9.47390314e-15 6.60536627 32 25.5 16.6788243"></polygon>
        </g>
    </g>
</svg>