<?xml version="1.0" encoding="UTF-8" standalone="no"?>
<svg width="32px" height="32px" viewBox="0 0 32 32" version="1.1" xmlns="http://www.w3.org/2000/svg" xmlns:xlink="http://www.w3.org/1999/xlink">
    <!-- Generator: Sketch 42 (36781) - http://www.bohemiancoding.com/sketch -->
    <title>emoji</title>
    <desc>Created with Sketch.</desc>
    <defs></defs>
    <g id="Icons" stroke="none" stroke-width="1" fill="none" fill-rule="evenodd">
        <g id="emoji" fill="#000000">
            <g id="Icon/Title-Bar/Normal/Emoji">
                <path d="M10.6666667,10.6666667 C12.14,10.6666667 13.3333333,11.86 13.3333333,13.3333333 C13.3333333,14.8053333 12.14,16 10.6666667,16 C9.19333333,16 8,14.8053333 8,13.3333333 C8,11.86 9.19333333,10.6666667 10.6666667,10.6666667" id="Fill-1"></path>
                <path d="M21.3333333,10.6666667 C22.8066667,10.6666667 24,11.86 24,13.3333333 C24,14.8053333 22.8066667,16 21.3333333,16 C19.86,16 18.6666667,14.8053333 18.6666667,13.3333333 C18.6666667,11.86 19.86,10.6666667 21.3333333,10.6666667" id="Fill-2"></path>
                <path d="M16,3.55555556 C22.8615556,3.55555556 28.4444444,9.13844444 28.4444444,16 C28.4444444,22.8615556 22.8615556,28.4444444 16,28.4444444 C9.13844444,28.4444444 3.55555556,22.8615556 3.55555556,16 C3.55555556,9.13844444 9.13844444,3.55555556 16,3.55555556 M16,0 C7.1632,0 0,7.1632 0,16 C0,24.8368 7.1632,32 16,32 C24.8368,32 32,24.8368 32,16 C32,7.1632 24.8368,0 16,0" id="Fill-3"></path>
                <path d="M22.2150652,18.6666667 C21.1068248,21.0610909 18.753259,22.7292121 16,22.7292121 C13.246741,22.7292121 10.8931752,21.0610909 9.78493482,18.6666667 L6.66666667,18.6666667 C8.02760573,22.6189091 11.6876069,25.4545455 16,25.4545455 C20.3123931,25.4545455 23.9723943,22.6189091 25.3333333,18.6666667 L22.2150652,18.6666667" id="Fill-4"></path>
            </g>
        </g>
    </g>
</svg>