<?xml version="1.0" encoding="UTF-8" standalone="no"?>
<svg width="32px" height="32px" viewBox="0 0 32 32" version="1.1" xmlns="http://www.w3.org/2000/svg" xmlns:xlink="http://www.w3.org/1999/xlink">
    <!-- Generator: Sketch 42 (36781) - http://www.bohemiancoding.com/sketch -->
    <title>end-call</title>
    <desc>Created with Sketch.</desc>
    <defs></defs>
    <g id="Icons" stroke="none" stroke-width="1" fill="none" fill-rule="evenodd">
        <g id="end-call" fill="#000000">
            <path d="M2.70477803,12.9467317 C6.85114457,10.4479283 11.6272756,9.30747474 17.029979,9.52645615 C22.485309,9.69154092 26.8273152,11.2003379 30.0570429,14.0538765 C31.5681619,15.7897624 32.1984247,17.8147291 31.9457691,20.1246306 C31.5338168,21.0595642 30.8600942,21.8508444 29.9277932,22.4973858 C28.9921683,22.529509 27.7968375,22.2656402 26.3407838,21.7026629 C24.6247378,21.0992885 23.5318344,20.779825 23.0652374,20.7452741 C22.6998885,20.1950799 22.6703275,19.250303 22.9787012,17.9088287 C23.3898405,16.56496 23.439089,15.7443344 23.1264184,15.4490387 C18.7059431,13.7128063 14.3416843,13.611618 10.0347437,15.1423296 C9.77517198,15.3053566 9.59516855,15.8491592 9.49473342,16.7737375 C9.44561917,18.0533822 9.24097855,18.9302988 8.87976642,19.403458 C4.78120849,21.0315798 2.60179136,21.8749973 2.34148675,21.9357974 C2.02954899,21.7427286 1.37844531,21.1775135 0.388175715,20.2401521 C-0.553712507,17.9209193 0.218478839,15.4904748 2.70477803,12.9467317" id="Call-icon"></path>
        </g>
    </g>
</svg>