<?xml version="1.0" encoding="UTF-8" standalone="no"?>
<svg width="32px" height="32px" viewBox="0 0 32 32" version="1.1" xmlns="http://www.w3.org/2000/svg" xmlns:xlink="http://www.w3.org/1999/xlink">
    <!-- Generator: Sketch 42 (36781) - http://www.bohemiancoding.com/sketch -->
    <title>exit-meeting</title>
    <desc>Created with Sketch.</desc>
    <defs></defs>
    <g id="Icons" stroke="none" stroke-width="1" fill="none" fill-rule="evenodd">
        <g id="exit-meeting" fill="#000000">
            <g id="Icon/Header-Bar/Normal/Exit-Meeting" transform="translate(1.500000, 0.000000)">
                <path d="M22.3205592,17.8548472 L11.2029814,17.8548472 C10.2004147,17.8548472 9.38767374,17.0514783 9.38767374,16.0449067 C9.38767374,15.0453041 10.1935341,14.2349661 11.2029814,14.2349661 L22.2134556,14.2349661 L20.0228751,12.3968508 C19.2546448,11.7522291 19.1482667,10.6142436 19.7952785,9.843165 C20.4378106,9.07742501 21.5759838,8.97464459 22.3496898,9.623861 L28.3463367,14.6556452 C29.114567,15.3002669 29.220945,16.4382524 28.5739333,17.209331 C28.49626,17.3018985 28.4113436,17.3847778 28.3207036,17.4578116 C28.2286057,17.5922835 28.1167768,17.7166624 27.9856719,17.8266725 L21.989025,22.8584567 C21.215319,23.5076731 20.0771458,23.4048927 19.4346137,22.6391527 C18.7876019,21.8680741 18.89398,20.7300886 19.6622103,20.0854669 L22.3205592,17.8548472 Z M12.3691733,10.2450269 L12.3972334,4.39755586 L3.28607811,5.26247127 L3.28607811,26.9921956 L12.4039669,28.243617 L12.3972328,21.9611634 L16.0499695,21.9611634 C16.0499695,21.9611634 16.0499681,26.014326 16.0499689,28.5733936 C16.0499697,31.1324612 14.8422259,31.9999995 12.8823556,32 C10.9224852,32.0000005 6.7499136,31.2454038 2.99506267,30.5700698 C-0.759788255,29.8947357 0.0802798228,26.6536586 0.0802798228,26.6536586 C0.0802798228,26.6536586 0.080279822,6.61721414 0.0802798241,4.98056091 C0.0802798261,3.34390769 0.447954448,2.00775776 2.26463128,1.64134718 C4.08130812,1.27493661 9.67887158,0.503209811 12.5719584,0.0624719336 C15.4650452,-0.378265944 15.8853683,1.61434547 15.8853683,2.8599091 C15.8853683,4.10547272 16.0121986,10.2450269 16.0121986,10.2450269 L12.3691733,10.2450269 Z" id="Exit-meeting"></path>
            </g>
        </g>
    </g>
</svg>