<?xml version="1.0" encoding="UTF-8" standalone="no"?>
<svg width="32px" height="32px" viewBox="0 0 32 32" version="1.1" xmlns="http://www.w3.org/2000/svg" xmlns:xlink="http://www.w3.org/1999/xlink">
    <!-- Generator: Sketch 42 (36781) - http://www.bohemiancoding.com/sketch -->
    <title>list</title>
    <desc>Created with Sketch.</desc>
    <defs></defs>
    <g id="Icons" stroke="none" stroke-width="1" fill="none" fill-rule="evenodd">
        <g id="list" fill="#000000">
            <path d="M32,6.815 C32,5.81216667 31.2120067,5 30.2390217,5 L8.85825459,5 C7.88526959,5 7.09727626,5.81216667 7.09727626,6.815 L7.09727626,6.85166667 C7.09727626,7.8545 7.88526959,8.66666667 8.85825459,8.66666667 L30.2390217,8.66666667 C31.2120067,8.66666667 32,7.8545 32,6.85166667 L32,6.815 L32,6.815 Z M1.79655364,5 L1.76097832,5 C0.78799333,5 0,5.81216667 0,6.815 L0,6.85166667 C0,7.8545 0.78799333,8.66666667 1.76097832,8.66666667 L1.79655364,8.66666667 C2.76775987,8.66666667 3.55753196,7.8545 3.55753196,6.85166667 L3.55753196,6.815 C3.55753196,5.81216667 2.76775987,5 1.79655364,5 L1.79655364,5 Z M32,15.9816667 C32,14.9788333 31.2120067,14.1666667 30.2390217,14.1666667 L8.85825459,14.1666667 C7.88526959,14.1666667 7.09727626,14.9788333 7.09727626,15.9816667 L7.09727626,16.0183333 C7.09727626,17.0211667 7.88526959,17.8333333 8.85825459,17.8333333 L30.2390217,17.8333333 C31.2120067,17.8333333 32,17.0211667 32,16.0183333 L32,15.9816667 L32,15.9816667 Z M1.79655364,14.1666667 L1.76097832,14.1666667 C0.78799333,14.1666667 0,14.9788333 0,15.9816667 L0,16.0183333 C0,17.0211667 0.78799333,17.8333333 1.76097832,17.8333333 L1.79655364,17.8333333 C2.76775987,17.8333333 3.55753196,17.0211667 3.55753196,16.0183333 L3.55753196,15.9816667 C3.55753196,14.9788333 2.76775987,14.1666667 1.79655364,14.1666667 L1.79655364,14.1666667 Z M32,25.1483333 C32,24.1455 31.2120067,23.3333333 30.2390217,23.3333333 L8.85825459,23.3333333 C7.88526959,23.3333333 7.09727626,24.1455 7.09727626,25.1483333 L7.09727626,25.185 C7.09727626,26.1878333 7.88526959,27 8.85825459,27 L30.2390217,27 C31.2120067,27 32,26.1878333 32,25.185 L32,25.1483333 L32,25.1483333 Z M1.79655364,23.3333333 L1.76097832,23.3333333 C0.78799333,23.3333333 0,24.1455 0,25.1483333 L0,25.185 C0,26.1878333 0.78799333,27 1.76097832,27 L1.79655364,27 C2.76775987,27 3.55753196,26.1878333 3.55753196,25.185 L3.55753196,25.1483333 C3.55753196,24.1455 2.76775987,23.3333333 1.79655364,23.3333333 L1.79655364,23.3333333 Z" id="Icon/Title-Bar/Normal/List"></path>
        </g>
    </g>
</svg>