<?xml version="1.0" encoding="UTF-8" standalone="no"?>
<svg width="32px" height="32px" viewBox="0 0 32 32" version="1.1" xmlns="http://www.w3.org/2000/svg" xmlns:xlink="http://www.w3.org/1999/xlink">
    <!-- Generator: Sketch 42 (36781) - http://www.bohemiancoding.com/sketch -->
    <title>locked</title>
    <desc>Created with Sketch.</desc>
    <defs></defs>
    <g id="Icons" stroke="none" stroke-width="1" fill="none" fill-rule="evenodd">
        <g id="locked" fill="#000000">
            <path d="M25.7391304,13.8666667 L29,13.8666667 L29,32 L4,32 L4,13.8666667 L7.26086957,13.8666667 L7.26086957,9.06666667 C7.26086957,4.05333333 11.3913043,0 16.5,0 C21.6086957,0 25.7391304,4.05333333 25.7391304,9.06666667 L25.7391304,13.8666667 Z M10.25,9.64848485 L10.25,13.8666667 L22.6676548,13.8666667 L22.6676548,9.64848485 C22.6676548,6.27393939 19.8975626,3.55555556 16.4588274,3.55555556 C13.0200922,3.55555556 10.25,6.27393939 10.25,9.64848485 Z" id="Icon/Title-Bar/Normal/Locked"></path>
        </g>
    </g>
</svg>