<?xml version="1.0" encoding="UTF-8" standalone="no"?>
<svg width="32px" height="32px" viewBox="0 0 32 32" version="1.1" xmlns="http://www.w3.org/2000/svg" xmlns:xlink="http://www.w3.org/1999/xlink">
    <!-- Generator: Sketch 42 (36781) - http://www.bohemiancoding.com/sketch -->
    <title>mail</title>
    <desc>Created with Sketch.</desc>
    <defs></defs>
    <g id="Icons" stroke="none" stroke-width="1" fill="none" fill-rule="evenodd">
        <g id="mail" fill="#000000">
            <path d="M16,18.712 L32,7.39771429 L32,7.09085714 C32,5.19657143 30.4088889,4 28.4444444,4 L3.55555556,4 C1.59288889,4 0,5.19657143 0,7.09085714 L0,7.39771429 L16,18.712 L16,18.712 Z M17.0186667,22.2091429 C16.7128889,22.4165714 16.3555556,22.5194286 16,22.5194286 C15.6444444,22.5194286 15.2871111,22.4165714 14.9813333,22.2091429 L0,11.5822857 L0,24.5714286 C0,26.4657143 1.59288889,28 3.55555556,28 L28.4444444,28 C30.4088889,28 32,26.4657143 32,24.5714286 L32,11.5822857 L17.0186667,22.2091429 L17.0186667,22.2091429 Z" id="Icon/Title-Bar/Normal/Mail"></path>
        </g>
    </g>
</svg>