<?xml version="1.0" encoding="UTF-8" standalone="no"?>
<svg width="32px" height="32px" viewBox="0 0 32 32" version="1.1" xmlns="http://www.w3.org/2000/svg" xmlns:xlink="http://www.w3.org/1999/xlink">
    <!-- Generator: Sketch 42 (36781) - http://www.bohemiancoding.com/sketch -->
    <title>maximize</title>
    <desc>Created with Sketch.</desc>
    <defs></defs>
    <g id="Icons" stroke="none" stroke-width="1" fill="none" fill-rule="evenodd">
        <g id="maximize" fill="#000000">
            <path d="M13.7013333,18.2986667 C13.0062222,17.6035556 11.8826667,17.6035556 11.1875556,18.2986667 L3.55555556,25.9306667 L3.55555556,19.5555556 C3.55555556,18.5742222 2.76088889,17.7777778 1.77777778,17.7777778 C0.794666667,17.7777778 0,18.5742222 0,19.5555556 L0,30.2222222 C0,31.2035556 0.794666667,32 1.77777778,32 L12.4444444,32 C13.4275556,32 14.2222222,31.2035556 14.2222222,30.2222222 C14.2222222,29.2408889 13.4275556,28.4444444 12.4444444,28.4444444 L6.06933333,28.4444444 L13.7013333,20.8124444 C14.3964444,20.1173333 14.3964444,18.9937778 13.7013333,18.2986667 L13.7013333,18.2986667 Z M30.2222222,0 L19.5555556,0 C18.5724444,0 17.7777778,0.796444444 17.7777778,1.77777778 C17.7777778,2.75911111 18.5724444,3.55555556 19.5555556,3.55555556 L25.9306667,3.55555556 L18.2986667,11.1875556 C17.6035556,11.8826667 17.6035556,13.0062222 18.2986667,13.7013333 C18.6453333,14.048 19.1004444,14.2222222 19.5555556,14.2222222 C20.0106667,14.2222222 20.4657778,14.048 20.8124444,13.7013333 L28.4444444,6.06933333 L28.4444444,12.4444444 C28.4444444,13.4257778 29.2391111,14.2222222 30.2222222,14.2222222 C31.2053333,14.2222222 32,13.4257778 32,12.4444444 L32,1.77777778 C32,0.796444444 31.2053333,0 30.2222222,0 L30.2222222,0 Z" id="Shape"></path>
        </g>
    </g>
</svg>