<?xml version="1.0" encoding="UTF-8" standalone="no"?>
<svg width="32px" height="32px" viewBox="0 0 32 32" version="1.1" xmlns="http://www.w3.org/2000/svg" xmlns:xlink="http://www.w3.org/1999/xlink">
    <!-- Generator: Sketch 42 (36781) - http://www.bohemiancoding.com/sketch -->
    <title>mobile</title>
    <desc>Created with Sketch.</desc>
    <defs>
        <rect id="path-1" x="7" y="10" width="7" height="12" rx="0.777777778"></rect>
        <mask id="mask-2" maskContentUnits="userSpaceOnUse" maskUnits="objectBoundingBox" x="-3" y="-3" width="13" height="18">
            <rect x="4" y="7" width="13" height="18" fill="white"></rect>
            <use xlink:href="#path-1" fill="black"></use>
        </mask>
    </defs>
    <g id="Icons" stroke="none" stroke-width="1" fill="none" fill-rule="evenodd">
        <g id="mobile">
            <g id="Indicator/PresenceDot/Medium/Mobile" transform="translate(6.000000, 0.000000)">
                <use id="Border" stroke="#FFFFFF" mask="url(#mask-2)" stroke-width="6" xlink:href="#path-1"></use>
                <rect id="Screen" fill="#FFFFFF" x="8" y="11.6" width="5" height="9"></rect>
                <path d="M0.5,2.07495314 C0.5,0.928988164 1.42927141,0 2.56950195,0 L17.430498,0 C18.5734524,0 19.5,0.923187256 19.5,2.07495314 L19.5,29.9250469 C19.5,31.0710118 18.5707286,32 17.430498,32 L2.56950195,32 C1.42654758,32 0.5,31.0768127 0.5,29.9250469 L0.5,2.07495314 Z M3.21428571,5.33333333 L3.21428571,26.6666667 L16.7857143,26.6666667 L16.7857143,5.33333333 L3.21428571,5.33333333 Z" id="Presence---Mobile" fill="#000000"></path>
            </g>
        </g>
    </g>
</svg>