<?xml version="1.0" encoding="UTF-8" standalone="no"?>
<svg width="32px" height="32px" viewBox="0 0 32 32" version="1.1" xmlns="http://www.w3.org/2000/svg" xmlns:xlink="http://www.w3.org/1999/xlink">
    <!-- Generator: Sketch 42 (36781) - http://www.bohemiancoding.com/sketch -->
    <title>overflow-filled</title>
    <desc>Created with Sketch.</desc>
    <defs></defs>
    <g id="Icons" stroke="none" stroke-width="1" fill="none" fill-rule="evenodd">
        <g id="overflow-filled" fill="#000000">
            <path d="M28.1188119,20 C25.9752909,20 24.2376238,18.209139 24.2376238,16 C24.2376238,13.790861 25.9752909,12 28.1188119,12 C30.2623329,12 32,13.790861 32,16 C32,18.209139 30.2623329,20 28.1188119,20 Z M15.8864738,20 C13.7735746,20 12.0607313,18.209139 12.0607313,16 C12.0607313,13.790861 13.7735746,12 15.8864738,12 C17.9993731,12 19.7122164,13.790861 19.7122164,16 C19.7122164,18.209139 17.9993731,20 15.8864738,20 Z M3.82574257,20 C1.71284329,20 0,18.209139 0,16 C0,13.790861 1.71284329,12 3.82574257,12 C5.93864185,12 7.65148515,13.790861 7.65148515,16 C7.65148515,18.209139 5.93864185,20 3.82574257,20 Z" id="Combined-Shape"></path>
        </g>
    </g>
</svg>