<?xml version="1.0" encoding="UTF-8" standalone="no"?>
<svg width="32px" height="32px" viewBox="0 0 32 32" version="1.1" xmlns="http://www.w3.org/2000/svg" xmlns:xlink="http://www.w3.org/1999/xlink">
    <!-- Generator: Sketch 42 (36781) - http://www.bohemiancoding.com/sketch -->
    <title>pencil</title>
    <desc>Created with Sketch.</desc>
    <defs></defs>
    <g id="Icons" stroke="none" stroke-width="1" fill="none" fill-rule="evenodd">
        <g id="pencil" fill="#000000">
            <path d="M25.0523684,-1.77635684e-15 C23.9144326,-1.77635684e-15 22.7764967,0.430293938 21.9052646,1.29265989 L1.15571607,22.0605656 C0.497846923,22.7184531 7.10542736e-15,23.9275435 7.10542736e-15,24.852142 L7.10542736e-15,30.2219259 C7.10542736e-15,31.1998666 0.800111127,32 1.77802473,32 L7.16543964,32 C8.10779275,32 9.28128907,31.5021392 9.93915822,30.8442518 L29.2485067,11.5521476 L30.706487,10.0941268 C32.431171,8.35161416 32.431171,5.54225704 30.706487,3.7997444 L28.1994721,1.29265989 C27.32824,0.430293938 26.1903042,7.89919641e-16 25.0523684,7.89919641e-16 L25.0523684,-1.77635684e-15 Z M3.55604945,28.4438518 L3.55604945,24.923265 L3.66273093,24.5676502 L20.0383387,8.19158749 L24.0388943,11.7121743 L7.4854841,28.2838251 L7.16543964,28.4438518 L3.55604945,28.4438518 L3.55604945,28.4438518 Z" id="Icon/Title-Bar/Normal/Pencil"></path>
        </g>
    </g>
</svg>