<?xml version="1.0" encoding="UTF-8" standalone="no"?>
<svg width="32px" height="32px" viewBox="0 0 32 32" version="1.1" xmlns="http://www.w3.org/2000/svg" xmlns:xlink="http://www.w3.org/1999/xlink">
    <!-- Generator: Sketch 42 (36781) - http://www.bohemiancoding.com/sketch -->
    <title>pointer</title>
    <desc>Created with Sketch.</desc>
    <defs></defs>
    <g id="Icons" stroke="none" stroke-width="1" fill="none" fill-rule="evenodd">
        <g id="pointer" fill-rule="nonzero" fill="#000000">
            <path d="M13.3191362,18.4266381 L20.2227122,18.4266381 L8.07539064,7.07567512 L8.07539064,24.1239862 L13.3191362,18.4266381 Z M5,32 L5,0 L28,21.4921576 L14.6712456,21.4921576 L5,32 Z" id="Icon/Title-Bar/Normal/Pointer"></path>
        </g>
    </g>
</svg>