<svg xmlns="http://www.w3.org/2000/svg" width="32" height="32" viewBox="0 0 32 32">
    <rect width="32" height="32" x="636" y="2212" fill="#fff" fill-rule="evenodd" rx="4.8" transform="translate(-636 -2212)"/>
</svg>
