<svg xmlns="http://www.w3.org/2000/svg" width="32" height="32" viewBox="0 0 32 32">
    <g fill="#fd4b62" fill-rule="evenodd">
        <circle cx="16" cy="16" r="16" fill-opacity=".25"/>
        <circle cx="16" cy="16" r="8"/>
    </g>
</svg>
