<?xml version="1.0" encoding="UTF-8" standalone="no"?>
<svg width="32px" height="32px" viewBox="0 0 32 32" version="1.1" xmlns="http://www.w3.org/2000/svg" xmlns:xlink="http://www.w3.org/1999/xlink">
    <!-- Generator: Sketch 42 (36781) - http://www.bohemiancoding.com/sketch -->
    <title>remove-from-contacts</title>
    <desc>Created with Sketch.</desc>
    <defs></defs>
    <g id="Icons" stroke="none" stroke-width="1" fill="none" fill-rule="evenodd">
        <g id="remove-from-contacts" fill="#000000">
            <g id="Group" transform="translate(2.000000, 0.000000)">
                <path d="M15.9733111,12.4594689 C15.9733111,15.4709119 13.5256464,17.9189378 10.5,17.9189378 C7.47435363,17.9189378 5.02668891,15.4709119 5.02668891,12.4594689 C5.02668891,9.44147449 7.47435363,7 10.5,7 C13.5256464,7 15.9733111,9.44147449 15.9733111,12.4594689 L15.9733111,12.4594689 Z M10.5,19.8210168 C15.5223103,19.8210168 19.7126772,23.2146226 21,27.815863 C18.2545872,30.4036513 14.5655755,32 10.4978107,32 C6.43442452,32 2.74541284,30.4036513 1.82964754e-13,27.8202306 C1.28732277,23.2146226 5.47550042,19.8210168 10.5,19.8210168 L10.5,19.8210168 Z" id="Icon/Title-Bar/Normal/User"></path>
                <path d="M24.1111111,5 L28,1.11111111 L26.8888889,1.28963507e-12 L23,3.88888889 L19.1111111,-5.4307176e-13 L18,1.11111111 L21.8888889,5 L18,8.88888889 L19.1111111,10 L23,6.11111111 L26.8888889,10 L28,8.88888889 L24.1111111,5 Z" id="Combined-Shape"></path>
            </g>
        </g>
    </g>
</svg>