<?xml version="1.0" encoding="UTF-8" standalone="no"?>
<svg width="32px" height="32px" viewBox="0 0 32 32" version="1.1" xmlns="http://www.w3.org/2000/svg" xmlns:xlink="http://www.w3.org/1999/xlink">
    <!-- Generator: Sketch 42 (36781) - http://www.bohemiancoding.com/sketch -->
    <title>send</title>
    <desc>Created with Sketch.</desc>
    <defs></defs>
    <g id="Icons" stroke="none" stroke-width="1" fill="none" fill-rule="evenodd">
        <g id="send" fill="#000000">
            <path d="M30.2222222,16.5714286 C29.2408889,16.5714286 28.4444444,17.3377143 28.4444444,18.2857143 L28.4444444,27.884 C28.4444444,28.5508571 27.6462222,28.5714286 27.5555556,28.5714286 L4.44444444,28.5714286 C4.35377778,28.5714286 3.55555556,28.5508571 3.55555556,27.884 L3.55555556,12.2857143 C3.55555556,11.8142857 3.95377778,11.4285714 4.44444444,11.4285714 L7.11111111,11.4285714 C8.09244444,11.4285714 8.88888889,10.6622857 8.88888889,9.71428571 C8.88888889,8.76628571 8.09244444,8 7.11111111,8 L4.44444444,8 C1.99466667,8 0,9.92171429 0,12.2857143 L0,27.884 C0,30.1914286 1.952,32 4.44444444,32 L27.5555556,32 C30.048,32 32,30.1914286 32,27.884 L32,18.2857143 C32,17.3377143 31.2035556,16.5714286 30.2222222,16.5714286 L30.2222222,16.5714286 Z M11.0571305,20 C11.5614947,20 11.9741564,19.6774517 12.0768633,19.2521924 C13.0874258,15.0302327 15.9852276,12.880511 20.9866869,12.2246027 L20.9866869,14.7347136 C20.9866869,15.9600369 22.266855,16.6555881 23.1985533,15.9095824 L31.4517864,9.28382668 C32.1927433,8.69098642 32.1780709,7.52692925 31.4352799,6.93408899 L23.2058895,0.306531323 C22.2760253,-0.437672407 20.9866869,0.257878779 20.9866869,1.48320211 L20.9866869,4.33027691 C14.6188591,5.63848977 10.3987059,10.5307734 10.0007167,19.06479 C9.97870804,19.5711368 10.4665658,20 11.0571305,20 L11.0571305,20 Z" id="Icon/Title-Bar/Normal/Send"></path>
        </g>
    </g>
</svg>