<?xml version="1.0" encoding="UTF-8" standalone="no"?>
<svg width="32px" height="32px" viewBox="0 0 32 32" version="1.1" xmlns="http://www.w3.org/2000/svg" xmlns:xlink="http://www.w3.org/1999/xlink">
    <!-- Generator: Sketch 42 (36781) - http://www.bohemiancoding.com/sketch -->
    <title>show</title>
    <desc>Created with Sketch.</desc>
    <defs></defs>
    <g id="Icons" stroke="none" stroke-width="1" fill="none" fill-rule="evenodd">
        <g id="show" fill="#000000">
            <g id="Group" transform="translate(0.000000, 5.000000)">
                <path d="M16,0 C8.72727273,0 2.51636364,4.56133333 0,11 C2.51636364,17.4386667 8.72727273,22 16,22 C23.2727273,22 29.4836364,17.4386667 32,11 C29.4836364,4.56133333 23.2727273,0 16,0 L16,0 Z M16,18.3333333 C11.9854545,18.3333333 8.72727273,15.048 8.72727273,11 C8.72727273,6.952 11.9854545,3.66666667 16,3.66666667 C20.0145455,3.66666667 23.2727273,6.952 23.2727273,11 C23.2727273,15.048 20.0145455,18.3333333 16,18.3333333 L16,18.3333333 Z M16,6.6 C13.5854545,6.6 11.6363636,8.56533333 11.6363636,11 C11.6363636,13.4346667 13.5854545,15.4 16,15.4 C18.4145455,15.4 20.3636364,13.4346667 20.3636364,11 C20.3636364,8.56533333 18.4145455,6.6 16,6.6 L16,6.6 Z" id="Shape"></path>
            </g>
        </g>
    </g>
</svg>