<?xml version="1.0" encoding="UTF-8" standalone="no"?>
<svg width="32px" height="32px" viewBox="0 0 32 32" version="1.1" xmlns="http://www.w3.org/2000/svg" xmlns:xlink="http://www.w3.org/1999/xlink">
    <!-- Generator: Sketch 42 (36781) - http://www.bohemiancoding.com/sketch -->
    <title>sidebar-contacts</title>
    <desc>Created with Sketch.</desc>
    <defs></defs>
    <g id="Icons" stroke="none" stroke-width="1" fill="none" fill-rule="evenodd">
        <g id="sidebar-contacts" fill="#000000">
            <g id="Icon/Side-Bar/Base-Icon/Focused/Contacts" transform="translate(0.000000, 5.000000)">
                <path d="M6.76917364,17.3317337 C4.19778916,17.3077203 1.75070566,17.2690524 0,17.2492162 C0,13.811149 2.05068545,10.853156 4.99293808,9.53704372 C5.96652191,10.1956718 7.13865737,10.5799998 8.39999989,10.5799998 C8.89334649,10.5799998 9.37304607,10.5212048 9.83255599,10.4101984 C10.0256764,11.3843287 10.4473857,12.2754888 11.0390303,13.0246585 C9.21909611,13.9894558 7.72557545,15.4959898 6.76917364,17.3317337 Z" id="Left-Body"></path>
                <path d="M12.7827223,3.86392489 C12.5170517,1.68643188 10.6658005,0 8.42157348,0 C5.99490916,0 4.02770905,1.97176267 4.02770905,4.40405519 C4.02770905,6.83634771 5.99490916,8.80811039 8.42157348,8.80811039 C8.88181839,8.80811039 9.32553568,8.73718312 9.74243896,8.60563884 C9.93583097,6.5751284 11.110026,4.83278506 12.7827223,3.86392489 Z" id="Left-Head"></path>
                <path d="M24.738447,17.351884 C27.2944981,17.3571993 29.7317396,17.3339189 31.4893617,17.2492162 C31.4893617,13.7833187 29.4053423,10.805299 26.4247985,9.50540625 C25.4421734,10.1833478 24.2528347,10.5799998 22.9714285,10.5799998 C22.5751856,10.5799998 22.1877463,10.5420719 21.8125003,10.4696271 C21.6087652,11.4467106 21.1746476,12.3385153 20.569961,13.0848538 C22.345848,14.055154 23.8020765,15.5448075 24.738447,17.351884 Z" id="Right-Body"></path>
                <path d="M21.9193062,8.65614284 C22.2854012,8.75524291 22.6704351,8.80811039 23.0677882,8.80811039 C25.4944525,8.80811039 27.4616526,6.83634771 27.4616526,4.40405519 C27.4616526,1.97176267 25.4944525,0 23.0677882,0 C20.8536965,0 19.0220978,1.64144546 18.7181964,3.7764759 C20.487835,4.73317639 21.7352607,6.54124856 21.9193062,8.65614284 Z" id="Right-Head"></path>
                <path d="M12.3788585,14.2803152 C9.40301998,15.5822307 7.32310737,18.5577952 7.32310737,22.020276 C11.5617849,22.068302 19.8825226,22.2267161 24.1662543,22.020276 C24.1662543,18.5972318 22.133451,15.6500754 19.2118344,14.3254501 C18.2429735,14.9742868 17.0796532,15.3523875 15.8285713,15.3523875 C14.5487544,15.3523875 13.3607769,14.9567188 12.3788585,14.2803152 Z" id="Front-Body"></path>
                <ellipse id="Front-Head" cx="15.7446809" cy="9.17511499" rx="4.39386442" ry="4.40405519"></ellipse>
            </g>
        </g>
    </g>
</svg>
