<?xml version="1.0" encoding="UTF-8" standalone="no"?>
<svg width="32px" height="32px" viewBox="0 0 32 32" version="1.1" xmlns="http://www.w3.org/2000/svg" xmlns:xlink="http://www.w3.org/1999/xlink">
    <!-- Generator: Sketch 42 (36781) - http://www.bohemiancoding.com/sketch -->
    <title>sidebar-support</title>
    <desc>Created with Sketch.</desc>
    <defs></defs>
    <g id="Icons" stroke="none" stroke-width="1" fill="none" fill-rule="evenodd">
        <g id="sidebar-support" fill="#FFFFFF">
            <path d="M15.9994286,0 C24.8356844,0 32,7.16457143 32,16 C32,24.8365714 24.8356844,32 15.9994286,32 C7.16317274,32 0,24.8365714 0,16 C0,7.16457143 7.16317274,0 15.9994286,0 Z M17.2508125,25.7531429 C17.6599407,25.3908571 17.8645048,24.8925714 17.8645048,24.2571429 C17.8645048,23.6857143 17.6679404,23.2057143 17.2782401,22.816 C16.8873969,22.4262857 16.407414,22.2308571 15.8360059,22.2308571 C15.256598,22.2308571 14.7663298,22.4262857 14.3674869,22.816 C13.9675012,23.2057143 13.7697939,23.6857143 13.7697939,24.2571429 C13.7697939,24.9017143 13.9755009,25.4022857 14.3880576,25.7611429 C14.8006143,26.1188571 15.2840256,26.2971429 15.8360059,26.2971429 C16.3708439,26.2971429 16.8439699,26.1165714 17.2508125,25.7531429 Z M22.3317739,13.1577143 C22.6449055,12.5771429 22.8014714,11.9017143 22.8014714,11.1302857 C22.8014714,10.152 22.5260526,9.24457143 21.9786436,8.40914286 C21.4300918,7.576 20.6518339,6.91542857 19.6450127,6.43085714 C18.6393343,5.94628571 17.4770901,5.70285714 16.1628513,5.70285714 C14.7469019,5.70285714 13.5103746,5.99314286 12.4498411,6.57371429 C11.3881647,7.15314286 10.5813364,7.88571429 10.0282133,8.77028571 C9.47509018,9.65485714 9.19852862,10.5268571 9.19852862,11.3885714 C9.19852862,11.8057143 9.37223671,12.1942857 9.72308132,12.552 C10.0716403,12.9108571 10.4990536,13.0891429 11.0076069,13.0891429 C11.8692904,13.0891429 12.4544123,12.5771429 12.7629728,11.552 C13.0886754,10.5737143 13.4886611,9.832 13.9595014,9.32914286 C14.4303418,8.824 15.1651727,8.57371429 16.1628513,8.57371429 C17.0153923,8.57371429 17.7113675,8.82285714 18.2519196,9.32114286 C18.7901861,9.82057143 19.0598907,10.4331429 19.0598907,11.1577143 C19.0598907,11.5291429 18.9718939,11.8742857 18.7936145,12.1908571 C18.6176208,12.5085714 18.4016285,12.7977143 18.1410664,13.0548571 C17.8839327,13.3142857 17.4633763,13.6971429 16.8839684,14.2045714 C16.2222778,14.7862857 15.6954394,15.2857143 15.3057391,15.7074286 C14.9160387,16.1291429 14.6040499,16.6194286 14.3674869,17.176 C14.1320667,17.7348571 14.0143566,18.3942857 14.0143566,19.1565714 C14.0143566,19.7645714 14.1743509,20.2228571 14.4977679,20.5302857 C14.8177565,20.8388571 15.2154566,20.9931429 15.6874397,20.9931429 C16.5936931,20.9931429 17.1331024,20.5222857 17.3056677,19.5782857 C17.4050927,19.1337143 17.4793757,18.8228571 17.5296597,18.6457143 C17.5799436,18.4685714 17.6496554,18.2925714 17.7399379,18.1165714 C17.8313632,17.9394286 17.9696439,17.744 18.155923,17.5314286 C18.3410592,17.3177143 18.5879076,17.0697143 18.8976108,16.7885714 C20.0118567,15.792 20.7855434,15.0822857 21.2163851,14.6594286 C21.6472269,14.2388571 22.0186422,13.7382857 22.3317739,13.1577143 Z" id="Combined-Shape"></path>
        </g>
    </g>
</svg>