<?xml version="1.0" encoding="UTF-8" standalone="no"?>
<svg width="32px" height="32px" viewBox="0 0 32 32" version="1.1" xmlns="http://www.w3.org/2000/svg" xmlns:xlink="http://www.w3.org/1999/xlink">
    <!-- Generator: Sketch 42 (36781) - http://www.bohemiancoding.com/sketch -->
    <title>sidebar-info</title>
    <desc>Created with Sketch.</desc>
    <defs></defs>
    <g id="Icons" stroke="none" stroke-width="1" fill="none" fill-rule="evenodd">
        <g id="sidebar-info" fill="#FFFFFF">
            <path d="M16,0 C7.16342857,0 0,7.16457143 0,16 C0,24.8377143 7.16342857,32 16,32 C24.8365714,32 32,24.8377143 32,16 C32,7.16457143 24.8365714,0 16,0 L16,0 Z M18.3085714,24.3588571 C18.3085714,25.64 17.2754286,26.68 16.0011429,26.68 C14.728,26.68 13.696,25.6422857 13.6948571,24.3611429 L13.6925714,24.3611429 L13.6925714,14.7577143 L13.6948571,14.7577143 C13.7085714,13.4868571 14.7348571,12.4605714 16.0011429,12.4605714 C17.2754286,12.4605714 18.3085714,13.4994286 18.3085714,14.7805714 C18.3085714,14.8148571 18.3074286,14.8491429 18.3051429,14.8834286 L18.3051429,24.2571429 C18.3074286,24.2902857 18.3085714,24.3245714 18.3085714,24.3588571 L18.3085714,24.3588571 Z M16,10.4651429 C14.5794286,10.4651429 13.4297143,9.31428571 13.4297143,7.89371429 C13.4297143,6.47314286 14.5794286,5.32228571 16,5.32228571 C17.4205714,5.32228571 18.5714286,6.47314286 18.5714286,7.89371429 C18.5714286,9.31428571 17.4205714,10.4651429 16,10.4651429 L16,10.4651429 Z" id="Info-icn"></path>
        </g>
    </g>
</svg>