<?xml version="1.0" encoding="UTF-8" standalone="no"?>
<svg width="32px" height="32px" viewBox="0 0 32 32" version="1.1" xmlns="http://www.w3.org/2000/svg" xmlns:xlink="http://www.w3.org/1999/xlink">
    <!-- Generator: Sketch 42 (36781) - http://www.bohemiancoding.com/sketch -->
    <title>sidebar-narrate</title>
    <desc>Created with Sketch.</desc>
    <defs>
        <rect id="path-1" x="0" y="0" width="32" height="29" rx="3.84"></rect>
        <mask id="mask-2" maskContentUnits="userSpaceOnUse" maskUnits="objectBoundingBox" x="0" y="0" width="32" height="29" fill="white">
            <use xlink:href="#path-1"></use>
        </mask>
    </defs>
    <g id="Icons" stroke="none" stroke-width="1" fill="none" fill-rule="evenodd">
        <g id="sidebar-narrate">
            <g id="Icon/Side-Bar/Base-Icon/Focused/Narrate" transform="translate(0.000000, 1.500000)">
                <path d="M6.93651643,20.8539326 L1.96480469,20.8539326 L1.96480469,22.062809 L6.9340074,22.062809 C7.19413469,23.0553329 8.08449234,23.7865169 9.14285714,23.7865169 C10.2012219,23.7865169 11.0915796,23.0553329 11.3517069,22.062809 L30.0320044,22.062809 L30.0320044,20.8539326 L11.3491979,20.8539326 C11.0858965,19.8662424 10.1978452,19.1397167 9.14285714,19.1397167 C8.08786905,19.1397167 7.19981776,19.8662424 6.93651643,20.8539326 Z M13.44,15.8146941 L13.44,7.29552525 L20.89184,11.5552681 L13.44,15.8146941 Z" id="Combined-Shape" fill="#FFFFFF"></path>
                <use id="Rectangle" stroke="#FFFFFF" mask="url(#mask-2)" stroke-width="4.48" xlink:href="#path-1"></use>
            </g>
        </g>
    </g>
</svg>