<?xml version="1.0" encoding="UTF-8" standalone="no"?>
<svg width="32px" height="32px" viewBox="0 0 32 32" version="1.1" xmlns="http://www.w3.org/2000/svg" xmlns:xlink="http://www.w3.org/1999/xlink">
    <!-- Generator: Sketch 42 (36781) - http://www.bohemiancoding.com/sketch -->
    <title>sidebar-scheduler</title>
    <desc>Created with Sketch.</desc>
    <defs></defs>
    <g id="Icons" stroke="none" stroke-width="1" fill="none" fill-rule="evenodd">
        <g id="sidebar-scheduler" fill="#FFFFFF">
            <g id="Icon/Side-Bar/Base-Icon/Focused/Scheduler">
                <path d="M23.5,3 L26.0087557,3 C27.1084896,3 28,3.89585781 28,4.9973917 L28,12 L0,12 L0,4.9973917 C0,3.89426273 0.899897516,3 1.99124431,3 L4.5,3 L4.5,5.49967027 C4.5,7.1513555 5.84314575,8.5 7.5,8.5 C9.15348288,8.5 10.5,7.15670662 10.5,5.49967027 L10.5,3 L17.5,3 L17.5,5.49967027 C17.5,7.1513555 18.8431458,8.5 20.5,8.5 C22.1534829,8.5 23.5,7.15670662 23.5,5.49967027 L23.5,3 Z" id="Combined-Shape"></path>
                <path d="M28,16.0445536 L28,12 L0,12 L0,24.9905224 C0,26.6633689 1.34157448,28 2.99649048,28 L17.4981013,28 C16.8611204,26.8078507 16.5,25.4460974 16.5,24 C16.5,19.3055796 20.3055796,15.5 25,15.5 C26.0560493,15.5 27.0671176,15.6925862 28,16.0445536 Z" id="Combined-Shape" fill-opacity="0.5"></path>
                <rect id="Rectangle-14" x="6" y="0" width="3" height="7" rx="1.5"></rect>
                <rect id="Rectangle-14" x="19" y="0" width="3" height="7" rx="1.5"></rect>
                <path d="M25.8007407,23.3007407 L25.8007407,19.4113416 C25.8007407,18.9930819 25.4649543,18.6548148 25.0507407,18.6548148 C24.6336394,18.6548148 24.3007407,18.9935234 24.3007407,19.4113416 L24.3007407,23.8716214 C24.3007407,23.9020371 24.3025164,23.9320298 24.3059689,23.9615002 C24.3025165,23.9907638 24.3007407,24.0205438 24.3007407,24.0507407 C24.3007407,24.4678421 24.6349371,24.8007407 25.0471891,24.8007407 L28.2002183,24.8007407 C28.6125431,24.8007407 28.9466667,24.4649543 28.9466667,24.0507407 C28.9466667,23.6336394 28.6124703,23.3007407 28.2002183,23.3007407 L25.8007407,23.3007407 Z M25,31 C21.1340068,31 18,27.8659932 18,24 C18,20.1340068 21.1340068,17 25,17 C28.8659932,17 32,20.1340068 32,24 C32,27.8659932 28.8659932,31 25,31 Z" id="Combined-Shape"></path>
            </g>
        </g>
    </g>
</svg>