<?xml version="1.0" encoding="UTF-8" standalone="no"?>
<svg width="32px" height="32px" viewBox="0 0 32 32" version="1.1" xmlns="http://www.w3.org/2000/svg" xmlns:xlink="http://www.w3.org/1999/xlink">
    <!-- Generator: Sketch 42 (36781) - http://www.bohemiancoding.com/sketch -->
    <title>text</title>
    <desc>Created with Sketch.</desc>
    <defs></defs>
    <g id="Icons" stroke="none" stroke-width="1" fill="none" fill-rule="evenodd">
        <g id="text" fill="#000000">
            <path d="M14.5687324,25.7311828 L12.6350643,20.2741935 L5.23149936,20.2741935 L3.33756415,25.7311828 L0,25.7311828 L7.24463329,6 L10.6881519,6 L17.9327852,25.7311828 L14.5687324,25.7311828 Z M11.8006732,17.5053763 L9.98620384,12.155914 C9.85376016,11.7974892 9.67054915,11.2329788 9.4365653,10.4623656 C9.20258146,9.69175242 9.04144406,9.12724194 8.95314827,8.7688172 C8.71474964,9.87097325 8.36598651,11.0761583 7.9068484,12.3844086 L6.15860051,17.5053763 L11.8006732,17.5053763 Z M29.7749572,25.7311828 L29.152475,23.6612903 L29.0465206,23.6612903 C28.3401543,24.5663128 27.6293839,25.182346 26.914188,25.5094086 C26.1989921,25.8364712 25.2807296,26 24.1593731,26 C22.7201517,26 21.5966047,25.6057387 20.7886982,24.8172043 C19.9807917,24.0286699 19.5768446,22.9130897 19.5768446,21.4704301 C19.5768446,19.9381644 20.1375144,18.782262 21.2588709,18.0026882 C22.3802275,17.2231144 24.0887254,16.7974914 26.3844159,16.7258065 L28.9140776,16.6451613 L28.9140776,15.8521505 C28.9140776,14.902325 28.6955488,14.1922067 28.2584846,13.7217742 C27.8214205,13.2513417 27.1437605,13.016129 26.2254842,13.016129 C25.47497,13.016129 24.7553702,13.1281351 24.066663,13.3521505 C23.3779558,13.576166 22.7157473,13.8405003 22.0800177,14.1451613 L21.0734507,11.8870968 C21.8681128,11.4659477 22.7378133,11.1456104 23.6825782,10.9260753 C24.6273432,10.7065401 25.5191173,10.5967742 26.3579273,10.5967742 C28.2209684,10.5967742 29.6270578,11.0089565 30.5762375,11.8333333 C31.5254173,12.6577102 32,13.9525001 32,15.7177419 L32,25.7311828 L29.7749572,25.7311828 Z M25.1394515,23.5806452 C26.2696376,23.5806452 27.1768632,23.2603079 27.8611556,22.6196237 C28.5454479,21.9789394 28.887589,21.0806509 28.887589,19.9247312 L28.887589,18.6344086 L27.0068981,18.7150538 C25.541188,18.7688175 24.4750323,19.0174709 23.8083991,19.4610215 C23.1417659,19.9045721 22.8084543,20.5833288 22.8084543,21.4973118 C22.8084543,22.1603976 23.0027021,22.6733853 23.3912036,23.0362903 C23.7797051,23.3991954 24.3624485,23.5806452 25.1394515,23.5806452 Z" id="Icon/Title-Bar/Normal/Text"></path>
        </g>
    </g>
</svg>