<?xml version="1.0" encoding="UTF-8" standalone="no"?>
<svg width="32px" height="32px" viewBox="0 0 32 32" version="1.1" xmlns="http://www.w3.org/2000/svg" xmlns:xlink="http://www.w3.org/1999/xlink">
    <!-- Generator: Sketch 42 (36781) - http://www.bohemiancoding.com/sketch -->
    <title>undo</title>
    <desc>Created with Sketch.</desc>
    <defs></defs>
    <g id="Icons" stroke="none" stroke-width="1" fill="none" fill-rule="evenodd">
        <g id="undo" fill="#000000">
            <path d="M29.96175,17.8604651 L27.14925,17.8604651 C27.1665,18.1075349 27.1875,18.3538605 27.1875,18.6046512 C27.1875,24.4517209 22.39275,29.2093023 16.5,29.2093023 C10.60725,29.2093023 5.8125,24.4517209 5.8125,18.6046512 C5.8125,12.7575814 10.60725,8 16.5,8 L16.5,13.7674419 L28.5,5.76744186 L16.5,0 L16.5,5.20930233 C9.04425,5.20930233 3,11.2066977 3,18.6046512 C3,26.0026047 9.04425,32 16.5,32 C23.95575,32 30,26.0026047 30,18.6046512 C30,18.3531163 29.976,18.1082791 29.96175,17.8604651 L29.96175,17.8604651 Z" id="Icon/Title-Bar/Normal/Undo" transform="translate(16.500000, 16.000000) scale(-1, 1) translate(-16.500000, -16.000000) "></path>
        </g>
    </g>
</svg>