<?xml version="1.0" encoding="UTF-8" standalone="no"?>
<svg width="32px" height="32px" viewBox="0 0 32 32" version="1.1" xmlns="http://www.w3.org/2000/svg" xmlns:xlink="http://www.w3.org/1999/xlink">
    <!-- Generator: Sketch 42 (36781) - http://www.bohemiancoding.com/sketch -->
    <title>unmuted-standard</title>
    <desc>Created with Sketch.</desc>
    <defs></defs>
    <g id="Icons" stroke="none" stroke-width="1" fill="none" fill-rule="evenodd">
        <g id="unmuted-standard" fill="#000000">
            <path d="M16,21.3459011 C13.188521,21.3459011 10.911902,18.9618888 10.911902,16.0210269 L10.911902,5.32487425 C10.911902,2.38546246 13.1899067,0 16,0 C18.8100933,0 21.088098,2.38546246 21.088098,5.32487425 L21.088098,16.0210269 C21.088098,18.9618888 18.8100933,21.3459011 16,21.3459011 Z M23.4603267,13.855984 L25.5,13.855984 L25.5,16.0282775 C25.5,21.1501337 21.7809218,25.3787103 17.0198366,25.9123578 L17.0198366,29.8654099 L22.6303238,29.8654099 L22.6303238,32 L9.3696762,32 L9.3696762,29.8654099 L14.9801634,29.8654099 L14.9801634,25.9123578 C10.2190782,25.3787103 6.5,21.1501337 6.5,16.0282775 L6.5,13.855984 L8.53967328,13.855984 L8.53967328,16.0282775 C8.53967328,20.333711 11.8860123,23.8357729 16,23.8357729 C20.1139877,23.8357729 23.4603267,20.333711 23.4603267,16.0282775 L23.4603267,13.855984 Z" id="Fill-1"></path>
        </g>
    </g>
</svg>