<?xml version="1.0" encoding="UTF-8" standalone="no"?>
<svg width="32px" height="32px" viewBox="0 0 32 32" version="1.1" xmlns="http://www.w3.org/2000/svg" xmlns:xlink="http://www.w3.org/1999/xlink">
    <!-- Generator: Sketch 42 (36781) - http://www.bohemiancoding.com/sketch -->
    <title>up-arrow</title>
    <desc>Created with Sketch.</desc>
    <defs></defs>
    <g id="Icons" stroke="none" stroke-width="1" fill="none" fill-rule="evenodd">
        <g id="up-arrow" fill="#000000">
            <polygon id="Icon/Title-Bar/Normal/Up-Arrow" transform="translate(16.000000, 16.000000) rotate(90.000000) translate(-16.000000, -16.000000) " points="32 14 7.6 14 18.8 2.8 16 0 7.99360578e-15 16 16 32 18.8 29.2 7.6 18 32 18"></polygon>
        </g>
    </g>
</svg>