<svg xmlns="http://www.w3.org/2000/svg" width="28" height="23" viewBox="0 0 28 23">
    <path  fill-rule="evenodd" d="M17.5 19.098V21H21v2H7v-2h3.5v-1.902H2.996A3 3 0 0 1 0 16.093V3.005C0 1.345 1.35 0 2.996 0h22.008A3 3 0 0 1 28 3.005v13.088c0 1.66-1.35 3.005-2.996 3.005H17.5zM2 3.493v12.014C2 16.337 2.672 17 3.501 17H24.5c.834 0 1.501-.668 1.501-1.493V3.493C26 2.663 25.328 2 24.499 2H3.5C2.667 2 2 2.668 2 3.493z"/>
</svg>
