<?xml version="1.0" encoding="UTF-8" standalone="no"?>
<svg width="32px" height="32px" viewBox="0 0 32 32" version="1.1" xmlns="http://www.w3.org/2000/svg" xmlns:xlink="http://www.w3.org/1999/xlink">
    <!-- Generator: Sketch 42 (36781) - http://www.bohemiancoding.com/sketch -->
    <title>user</title>
    <desc>Created with Sketch.</desc>
    <defs></defs>
    <g id="Icons" stroke="none" stroke-width="1" fill="none" fill-rule="evenodd">
        <g id="user" fill="#000000">
            <path d="M16,0 C7.16266667,0 0,7.16266667 0,16 C0,24.8373333 7.16266667,32 16,32 C24.8373333,32 32,24.8373333 32,16 C32,7.16266667 24.8373333,0 16,0 L16,0 Z M20.4462222,12.5368889 C20.4462222,14.9884444 18.4586667,16.9813333 16.0017778,16.9813333 C13.5448889,16.9813333 11.5573333,14.9884444 11.5573333,12.5368889 C11.5573333,10.08 13.5448889,8.09244444 16.0017778,8.09244444 C18.4586667,8.09244444 20.4462222,10.08 20.4462222,12.5368889 L20.4462222,12.5368889 Z M16.0017778,18.5297778 C20.08,18.5297778 23.4826667,21.2924444 24.528,25.0382222 C22.2986667,27.1448889 19.3031111,28.4444444 16,28.4444444 C12.7004444,28.4444444 9.70488889,27.1448889 7.47555556,25.0417778 C8.52088889,21.2924444 11.9217778,18.5297778 16.0017778,18.5297778 L16.0017778,18.5297778 Z" id="Icon/Title-Bar/Normal/User"></path>
        </g>
    </g>
</svg>